<svg version="1.1" xmlns="http://www.w3.org/2000/svg" xmlns:xlink="http://www.w3.org/1999/xlink" preserveAspectRatio="xMidYMid meet" viewBox="658 275 144 153"><g data-item-type="text" data-item="Business" id="logo__item--business" class="logo__item">
  <g class="logo__item__inner" transform="translate(607.7109375 541.4234575180562) scale(3.264575794129473 3.264575794129473) rotate(0 0 0)">
    <text data-part-id="logo__item--business" dy="0" dominant-baseline="auto" alignment-baseline="auto" font-family="Montserrat" font-size="32px" fill="#576E7F" letter-spacing="0" font-weight="bold" font-style="normal" data-font-family="Montserrat" data-font-weight="bold" data-font-style="normal" data-ttf-url="/builder_assets/fontsttf/font-montserrat-bold-normal.ttf" data-font-filename="montserrat-bold-normal"></text>
  </g>
</g><g data-item-type="image" data-item="Image" data-logo-item="" id="logo__item--logo_0" class="logo__item">
  <g class="logo__item__inner" transform="translate(662.5110256504479 285.5) scale(0.881057189757029 0.881057189757029) rotate(0 0 0)">

    <g>
      <linearGradient id="logo__item--logo_0__0" gradientUnits="objectBoundingBox" x1="0.5" y1="0" x2="0.5" y2="1"><stop offset="0" style="stop-color:#070000"></stop><stop offset="1" style="stop-color:#999999"></stop></linearGradient><filter id="logo__item--logo_0__0_Effect" x="-100%" y="-100%" width="300%" height="300%"><feOffset in="SourceAlpha" dx="0.00" dy="0.00" result="offsetShadow"></feOffset><feGaussianBlur in="offsetShadow" stdDeviation="7" result="shadow"></feGaussianBlur><feMerge><feMergeNode in="shadow"></feMergeNode><feMergeNode in="SourceGraphic"></feMergeNode></feMerge></filter><path fill="#262626" d="M72.1,31.2C72.1,31.2,72,31.2,72.1,31.2L72,76.1l37.3-21.5C102.6,41.4,89.8,31.2,72.1,31.2z" data-part-id="logo__item--logo_0__0" data-filter-shadow="" data-filter-shadow-distance="0" data-filter-shadow-angle="45" filter="url(#logo__item--logo_0__0_Effect)"></path>
      <filter id="logo__item--logo_0__1_Effect" x="-100%" y="-100%" width="300%" height="300%"><feOffset in="SourceAlpha" dx="0.00" dy="0.00" result="offsetShadow"></feOffset><feGaussianBlur in="offsetShadow" stdDeviation="7" result="shadow"></feGaussianBlur><feMerge><feMergeNode in="shadow"></feMergeNode><feMergeNode in="SourceGraphic"></feMergeNode></feMerge></filter><path fill="#ED1B24" d="M72,121c0.1,0,0.2,0,0.3,0c17.7,0,30.4-10.2,37-23.3L72,76.1V121z" data-part-id="logo__item--logo_0__1" data-filter-shadow="" data-filter-shadow-distance="0" data-filter-shadow-angle="45" filter="url(#logo__item--logo_0__1_Effect)"></path>
      <filter id="logo__item--logo_0__2_Effect" x="-100%" y="-100%" width="300%" height="300%"><feOffset in="SourceAlpha" dx="0.00" dy="0.00" result="offsetShadow"></feOffset><feGaussianBlur in="offsetShadow" stdDeviation="7" result="shadow"></feGaussianBlur><feGaussianBlur in="SourceGraphic" stdDeviation="1" result="glow"></feGaussianBlur><feMerge><feMergeNode in="shadow"></feMergeNode><feMergeNode in="glow"></feMergeNode><feMergeNode in="SourceGraphic"></feMergeNode></feMerge></filter><path fill="#3f3146" d="M34.5,54.5c-3.3,6.5-5,13.9-5,21.4v0.2c0,7.7,1.8,15.1,5.1,21.6L72,76.1L34.5,54.5z" data-part-id="logo__item--logo_0__2" filter="url(#logo__item--logo_0__2_Effect)" data-filter-glow="" data-filter-glow-thickness="1" data-filter-shadow="" data-filter-shadow-distance="0" data-filter-shadow-angle="45"></path>
      <linearGradient id="logo__item--logo_0__3" gradientUnits="objectBoundingBox" x1="0.5" y1="0" x2="0.5" y2="1"><stop offset="0" style="stop-color:#333333"></stop><stop offset="1" style="stop-color:#999999"></stop></linearGradient><filter id="logo__item--logo_0__3_Effect" x="-100%" y="-100%" width="300%" height="300%"><feOffset in="SourceAlpha" dx="0.00" dy="0.00" result="offsetShadow"></feOffset><feGaussianBlur in="offsetShadow" stdDeviation="7" result="shadow"></feGaussianBlur><feMerge><feMergeNode in="shadow"></feMergeNode><feMergeNode in="SourceGraphic"></feMergeNode></feMerge></filter><path fill="#ED1B24" d="M131.7,41.7l-22.4,12.9c3.4,6.8,5.2,14.3,5.2,21.7c0,7.3-1.8,14.7-5.2,21.4l22.4,12.9   c5.9-10.1,9.3-21.9,9.3-34.5C140.9,63.6,137.6,51.8,131.7,41.7z" data-part-id="logo__item--logo_0__3" data-filter-shadow="" data-filter-shadow-distance="0" data-filter-shadow-angle="45" filter="url(#logo__item--logo_0__3_Effect)"></path>
      <filter id="logo__item--logo_0__4_Effect" x="-100%" y="-100%" width="300%" height="300%"><feOffset in="SourceAlpha" dx="0.00" dy="0.00" result="offsetShadow"></feOffset><feGaussianBlur in="offsetShadow" stdDeviation="7" result="shadow"></feGaussianBlur><feMerge><feMergeNode in="shadow"></feMergeNode><feMergeNode in="SourceGraphic"></feMergeNode></feMerge></filter><path fill="#3f3146" d="M34.6,97.7l-22.4,12.9c11.4,19.6,32.8,33.6,59.5,33.6c0.1,0,0.2,0,0.3,0V121   C54.8,120.9,41.4,111.3,34.6,97.7z" data-part-id="logo__item--logo_0__4" data-filter-shadow="" data-filter-shadow-distance="0" data-filter-shadow-angle="45" filter="url(#logo__item--logo_0__4_Effect)"></path>
      <filter id="logo__item--logo_0__5_Effect" x="-100%" y="-100%" width="300%" height="300%"><feOffset in="SourceAlpha" dx="0.00" dy="0.00" result="offsetShadow"></feOffset><feGaussianBlur in="offsetShadow" stdDeviation="7" result="shadow"></feGaussianBlur><feMerge><feMergeNode in="shadow"></feMergeNode><feMergeNode in="SourceGraphic"></feMergeNode></feMerge></filter><path fill="#262626" d="M72,31.2V8c0,0-0.1,0-0.1,0C47.1,8,24.4,20.5,12.2,41.6l22.3,12.9C41.3,41.1,54.4,31.3,72,31.2z" data-part-id="logo__item--logo_0__5" data-filter-shadow="" data-filter-shadow-distance="0" data-filter-shadow-angle="45" filter="url(#logo__item--logo_0__5_Effect)"></path>
    </g>

  </g>
</g><g data-item-type="shape" data-item="Shape" data-logo-item="" id="logo__item--shape_1" class="logo__item logo__item--active logo__item-part--active">
  <g class="logo__item__inner" transform="translate(683.5 301) scale(1 1) rotate(0 0 0)">

    <g>
      <path fill="#262626" d="M43,91.5C20.7,91.5,2.5,73.3,2.5,51S20.7,10.5,43,10.5S83.5,28.7,83.5,51S65.3,91.5,43,91.5z M43,20.7   c-16.7,0-30.3,13.6-30.3,30.3S26.3,81.2,43,81.2S73.3,67.7,73.3,51S59.7,20.7,43,20.7z" data-part-id="logo__item--shape_1__0" class="logo__part--active"></path>
    </g>

  </g>
</g></svg>
